{
  "google": {
    "urlPattern": "google\\.com\/search",
    "items": {
      "mainLinks": {
        "container": {
          "selector": ".g",
          "class": "disco-serp"
        },
        "injection": {
          "helper": "serp",
          "link": ".rc .r > a",
          "style": "display: block;background-color: #439775;padding: 5px 15px;border-radius: 5px 5px;font-size: 14px;color: #fff;",
          "insert": {
            "method": "insertBefore",
            "container": "* > h2"
          }
        }
      }
    }
  }
}
